digraph workflow_status {
    node [ordering=in];
    newrank=true;
    rankdir=TB;
    splines=ortho;
    bgcolor="transparent"

    {
        rank=same;

        "Created" [
            label="Created",
            shape="box",
        ];

        "Admitted" [
            label="Admitted",
            shape="box",
        ];

        "Success" [
            label="Complete /\nReady",
            shape="box",
            style="bold",
        ];

        "Deleted" [
            label="Deleted",
            shape="box",
            style="dashed",
        ];
    }

    "Failure" [
        label="Failed /\nError",
        shape="box",
        style="bold",
    ];

    "Terminated" [
        label="Terminated",
        shape="box",
        style="bold",
    ];

    Created -> Admitted;
    Admitted -> Success;
    Success -> Deleted;

    Created -> Failure;
    Admitted -> Failure;

    Failure -> Deleted;
    Terminated -> Deleted;

    Created -> Success;
    Created -> Terminated;
    Created -> Deleted;


    Admitted -> Terminated;
    Admitted -> Deleted;

    Success -> Failure [style=invis, weight=10];
    Failure -> Terminated [style=invis, weight=10]
}
